{
  "project_info": {
    "project_number": "357171949887",
    "firebase_url": "https://asss-1cd92.firebaseio.com",
    "project_id": "asss-1cd92",
    "storage_bucket": "asss-1cd92.appspot.com"
  },
  "client": [
    {
      "client_info": {
        "mobilesdk_app_id": "1:357171949887:android:f512f8ce17b87b5e",
        "android_client_info": {
          "package_name": "com.aait.zwagy_provider"
        }
      },
      "oauth_client": [
        {
          "client_id": "357171949887-q2omt3ik3l4dfd3fa17e465mt2hf5pha.apps.googleusercontent.com",
          "client_type": 1,
          "android_info": {
            "package_name": "com.aait.zwagy_provider",
            "certificate_hash": "e10d8aee9a5f62cb2070bb50f241ca3a4413a3b5"
          }
        },
        {
          "client_id": "357171949887-8jkvo3uvu4ias5q2l8q9c3a2qif8tmud.apps.googleusercontent.com",
          "client_type": 3
        }
      ],
      "api_key": [
        {
          "current_key": "AIzaSyC0qUrZe37qqhx5CYUAwOLU_THdblUaX7E"
        },
        {
          "current_key": "AIzaSyDpBT-MEZu1L5P49V8Pz1BrBucu0sdokx8"
        }
      ],
      "services": {
        "analytics_service": {
          "status": 1
        },
        "appinvite_service": {
          "status": 2,
          "other_platform_oauth_client": [
            {
              "client_id": "357171949887-ambunj5a93h1j2pr43ns2nt0ps8km6ha.apps.googleusercontent.com",
              "client_type": 2,
              "ios_info": {
                "bundle_id": "com.aait.aS3S"
              }
            },
            {
              "client_id": "357171949887-8jkvo3uvu4ias5q2l8q9c3a2qif8tmud.apps.googleusercontent.com",
              "client_type": 3
            }
          ]
        },
        "ads_service": {
          "status": 2
        }
      }
    },
    {
      "client_info": {
        "mobilesdk_app_id": "1:357171949887:android:767c41a9eb2ae6be",
        "android_client_info": {
          "package_name": "com.aait.shahena_provider"
        }
      },
      "oauth_client": [
        {
          "client_id": "357171949887-kglr1i4gujthakfcub2gvob4nisql4in.apps.googleusercontent.com",
          "client_type": 1,
          "android_info": {
            "package_name": "com.aait.shahena_provider",
            "certificate_hash": "e10d8aee9a5f62cb2070bb50f241ca3a4413a3b5"
          }
        },
        {
          "client_id": "357171949887-8jkvo3uvu4ias5q2l8q9c3a2qif8tmud.apps.googleusercontent.com",
          "client_type": 3
        }
      ],
      "api_key": [
        {
          "current_key": "AIzaSyC0qUrZe37qqhx5CYUAwOLU_THdblUaX7E"
        },
        {
          "current_key": "AIzaSyDpBT-MEZu1L5P49V8Pz1BrBucu0sdokx8"
        }
      ],
      "services": {
        "analytics_service": {
          "status": 1
        },
        "appinvite_service": {
          "status": 2,
          "other_platform_oauth_client": [
            {
              "client_id": "357171949887-ambunj5a93h1j2pr43ns2nt0ps8km6ha.apps.googleusercontent.com",
              "client_type": 2,
              "ios_info": {
                "bundle_id": "com.aait.aS3S"
              }
            },
            {
              "client_id": "357171949887-8jkvo3uvu4ias5q2l8q9c3a2qif8tmud.apps.googleusercontent.com",
              "client_type": 3
            }
          ]
        },
        "ads_service": {
          "status": 2
        }
      }
    },
    {
      "client_info": {
        "mobilesdk_app_id": "1:357171949887:android:b33545582e5e9d4a",
        "android_client_info": {
          "package_name": "com.aait.shahena_client"
        }
      },
      "oauth_client": [
        {
          "client_id": "357171949887-3m3hd8sqfht9c2ajjlt3aa5p4mujhtg1.apps.googleusercontent.com",
          "client_type": 1,
          "android_info": {
            "package_name": "com.aait.shahena_client",
            "certificate_hash": "e10d8aee9a5f62cb2070bb50f241ca3a4413a3b5"
          }
        },
        {
          "client_id": "357171949887-8jkvo3uvu4ias5q2l8q9c3a2qif8tmud.apps.googleusercontent.com",
          "client_type": 3
        }
      ],
      "api_key": [
        {
          "current_key": "AIzaSyC0qUrZe37qqhx5CYUAwOLU_THdblUaX7E"
        },
        {
          "current_key": "AIzaSyDpBT-MEZu1L5P49V8Pz1BrBucu0sdokx8"
        }
      ],
      "services": {
        "analytics_service": {
          "status": 1
        },
        "appinvite_service": {
          "status": 2,
          "other_platform_oauth_client": [
            {
              "client_id": "357171949887-ambunj5a93h1j2pr43ns2nt0ps8km6ha.apps.googleusercontent.com",
              "client_type": 2,
              "ios_info": {
                "bundle_id": "com.aait.aS3S"
              }
            },
            {
              "client_id": "357171949887-8jkvo3uvu4ias5q2l8q9c3a2qif8tmud.apps.googleusercontent.com",
              "client_type": 3
            }
          ]
        },
        "ads_service": {
          "status": 2
        }
      }
    },
    {
      "client_info": {
        "mobilesdk_app_id": "1:357171949887:android:1ae0fee18f0996a1",
        "android_client_info": {
          "package_name": "com.aait.kawafel"
        }
      },
      "oauth_client": [
        {
          "client_id": "357171949887-oiphis95deur56h0cq68r0qngi7k95d0.apps.googleusercontent.com",
          "client_type": 1,
          "android_info": {
            "package_name": "com.aait.kawafel",
            "certificate_hash": "e10d8aee9a5f62cb2070bb50f241ca3a4413a3b5"
          }
        },
        {
          "client_id": "357171949887-8jkvo3uvu4ias5q2l8q9c3a2qif8tmud.apps.googleusercontent.com",
          "client_type": 3
        }
      ],
      "api_key": [
        {
          "current_key": "AIzaSyC0qUrZe37qqhx5CYUAwOLU_THdblUaX7E"
        },
        {
          "current_key": "AIzaSyDpBT-MEZu1L5P49V8Pz1BrBucu0sdokx8"
        }
      ],
      "services": {
        "analytics_service": {
          "status": 1
        },
        "appinvite_service": {
          "status": 2,
          "other_platform_oauth_client": [
            {
              "client_id": "357171949887-ambunj5a93h1j2pr43ns2nt0ps8km6ha.apps.googleusercontent.com",
              "client_type": 2,
              "ios_info": {
                "bundle_id": "com.aait.aS3S"
              }
            },
            {
              "client_id": "357171949887-8jkvo3uvu4ias5q2l8q9c3a2qif8tmud.apps.googleusercontent.com",
              "client_type": 3
            }
          ]
        },
        "ads_service": {
          "status": 2
        }
      }
    },
    {
      "client_info": {
        "mobilesdk_app_id": "1:357171949887:android:a3d8b4af188e395c",
        "android_client_info": {
          "package_name": "com.aait.nwafez"
        }
      },
      "oauth_client": [
        {
          "client_id": "357171949887-n4auepgsabt7qj59vgunumhuq0fa9cid.apps.googleusercontent.com",
          "client_type": 1,
          "android_info": {
            "package_name": "com.aait.nwafez",
            "certificate_hash": "8510a4f8e3ab8b5c151faae2f20624c529d778f3"
          }
        },
        {
          "client_id": "357171949887-8jkvo3uvu4ias5q2l8q9c3a2qif8tmud.apps.googleusercontent.com",
          "client_type": 3
        }
      ],
      "api_key": [
        {
          "current_key": "AIzaSyC0qUrZe37qqhx5CYUAwOLU_THdblUaX7E"
        },
        {
          "current_key": "AIzaSyDpBT-MEZu1L5P49V8Pz1BrBucu0sdokx8"
        }
      ],
      "services": {
        "analytics_service": {
          "status": 1
        },
        "appinvite_service": {
          "status": 2,
          "other_platform_oauth_client": [
            {
              "client_id": "357171949887-ambunj5a93h1j2pr43ns2nt0ps8km6ha.apps.googleusercontent.com",
              "client_type": 2,
              "ios_info": {
                "bundle_id": "com.aait.aS3S"
              }
            },
            {
              "client_id": "357171949887-8jkvo3uvu4ias5q2l8q9c3a2qif8tmud.apps.googleusercontent.com",
              "client_type": 3
            }
          ]
        },
        "ads_service": {
          "status": 2
        }
      }
    },
    {
      "client_info": {
        "mobilesdk_app_id": "1:357171949887:android:04218bfafda8c42f",
        "android_client_info": {
          "package_name": "com.aait.assas"
        }
      },
      "oauth_client": [
        {
          "client_id": "357171949887-j1f6tdpsa3rg8jfrv60bdd2nuukvpch5.apps.googleusercontent.com",
          "client_type": 1,
          "android_info": {
            "package_name": "com.aait.assas",
            "certificate_hash": "8510a4f8e3ab8b5c151faae2f20624c529d778f3"
          }
        },
        {
          "client_id": "357171949887-8jkvo3uvu4ias5q2l8q9c3a2qif8tmud.apps.googleusercontent.com",
          "client_type": 3
        }
      ],
      "api_key": [
        {
          "current_key": "AIzaSyC0qUrZe37qqhx5CYUAwOLU_THdblUaX7E"
        },
        {
          "current_key": "AIzaSyDpBT-MEZu1L5P49V8Pz1BrBucu0sdokx8"
        }
      ],
      "services": {
        "analytics_service": {
          "status": 1
        },
        "appinvite_service": {
          "status": 2,
          "other_platform_oauth_client": [
            {
              "client_id": "357171949887-ambunj5a93h1j2pr43ns2nt0ps8km6ha.apps.googleusercontent.com",
              "client_type": 2,
              "ios_info": {
                "bundle_id": "com.aait.aS3S"
              }
            },
            {
              "client_id": "357171949887-8jkvo3uvu4ias5q2l8q9c3a2qif8tmud.apps.googleusercontent.com",
              "client_type": 3
            }
          ]
        },
        "ads_service": {
          "status": 2
        }
      }
    },
    {
      "client_info": {
        "mobilesdk_app_id": "1:357171949887:android:08e9e53fba17a47e",
        "android_client_info": {
          "package_name": "com.aait.asas"
        }
      },
      "oauth_client": [
        {
          "client_id": "357171949887-8jkvo3uvu4ias5q2l8q9c3a2qif8tmud.apps.googleusercontent.com",
          "client_type": 3
        }
      ],
      "api_key": [
        {
          "current_key": "AIzaSyC0qUrZe37qqhx5CYUAwOLU_THdblUaX7E"
        },
        {
          "current_key": "AIzaSyDpBT-MEZu1L5P49V8Pz1BrBucu0sdokx8"
        }
      ],
      "services": {
        "analytics_service": {
          "status": 1
        },
        "appinvite_service": {
          "status": 1,
          "other_platform_oauth_client": []
        },
        "ads_service": {
          "status": 2
        }
      }
    },
    {
      "client_info": {
        "mobilesdk_app_id": "1:357171949887:android:84853aa79be61a7b",
        "android_client_info": {
          "package_name": "com.aait.syana"
        }
      },
      "oauth_client": [
        {
          "client_id": "357171949887-8jkvo3uvu4ias5q2l8q9c3a2qif8tmud.apps.googleusercontent.com",
          "client_type": 3
        }
      ],
      "api_key": [
        {
          "current_key": "AIzaSyC0qUrZe37qqhx5CYUAwOLU_THdblUaX7E"
        },
        {
          "current_key": "AIzaSyDpBT-MEZu1L5P49V8Pz1BrBucu0sdokx8"
        }
      ],
      "services": {
        "analytics_service": {
          "status": 1
        },
        "appinvite_service": {
          "status": 1,
          "other_platform_oauth_client": []
        },
        "ads_service": {
          "status": 2
        }
      }
    }
  ],
  "configuration_version": "1"
}